<svg width="93" height="98" viewBox="0 0 93 98" fill="none" xmlns="http://www.w3.org/2000/svg">
<path d="M87.2892 73.134C90.8371 66.5745 92.8521 59.0646 92.8521 51.0837C92.8521 25.4486 72.0708 4.66711 46.4357 4.66711C20.8006 4.66711 0.0192871 25.4484 0.0192871 51.0837C0.0192871 59.0646 2.03431 66.5745 5.5822 73.134H87.2892Z" fill="#73C3F9"/>
<path d="M11.6206 81.7779L58.4288 92.0434V61.5057C58.4288 59.372 60.1646 57.6361 62.2982 57.6361H77.9942V15.6944C77.9942 12.6698 75.5194 10.1949 72.4948 10.1949H57.1583C57.1583 11.9732 55.7115 13.42 53.9333 13.42H29.5435C27.7653 13.42 26.3184 11.9732 26.3184 10.1949H10.9818C7.95698 10.1949 5.48235 12.6698 5.48235 15.6944V72.9445C7.1861 76.1294 9.25038 79.092 11.6204 81.7787V81.7779H11.6206Z" fill="#AC694B"/>
<path d="M25.9936 77.2273C25.9936 76.7838 25.7268 76.3905 25.3239 76.2052C24.8076 75.9682 24.6538 75.4743 24.6091 75.2411C24.5966 75.1753 24.5913 75.109 24.5913 75.0421V68.0407C24.5913 67.3837 24.9198 67.0444 25.2394 66.8697C25.6029 66.671 25.8358 66.2974 25.8358 65.883V57.8184C25.8358 57.388 25.576 57.0111 25.1888 56.8236C24.6106 56.5436 24.4156 56.0614 24.3512 55.8045C24.3296 55.7187 24.3203 55.631 24.3203 55.5425V49.2218C24.3203 48.2825 24.8898 47.8058 25.3644 47.5716C25.7443 47.3843 25.994 47.0078 25.994 46.5842V38.4624C25.994 38.0336 25.746 37.6462 25.3608 37.4577C23.6694 36.629 23.7205 34.6024 23.7205 34.6024C23.7205 34.6024 23.7205 23.4247 23.7205 21.0249C23.7205 19.8079 24.2364 18.9513 24.7447 18.4031C25.1621 17.9527 25.1536 17.2506 24.7059 16.8304C22.5601 14.816 23.1317 12.5749 23.7707 11.2808C23.9502 10.9176 23.9123 10.5103 23.7154 10.1952H10.9823C7.95748 10.1952 5.48284 12.67 5.48284 15.6946V72.9447C7.18659 76.1296 9.25087 79.0923 11.6209 81.7789V81.7781L25.9938 84.9303V77.2273H25.9936Z" fill="#884A37"/>
<path d="M46.2603 7.07061V5.02206C46.2603 2.5245 44.2358 0.5 41.7383 0.5C39.2409 0.5 37.2162 2.5245 37.2162 5.02206V7.07061H46.2603Z" fill="#FFB332"/>
<path d="M41.7383 4.6671C40.1391 4.6671 38.7351 3.83635 37.9308 2.5835C37.4792 3.28731 37.2162 4.12356 37.2162 5.02195V7.07051H46.2603V5.02214C46.2603 4.12375 45.9974 3.28731 45.5457 2.58369C44.7415 3.83635 43.3375 4.6671 41.7383 4.6671Z" fill="#FF9100"/>
<path d="M53.9329 6.6676H29.5435C27.5953 6.6676 26.0161 8.24688 26.0161 10.195C26.0161 12.1432 27.5953 13.7225 29.5435 13.7225H53.9329C55.8811 13.7225 57.4604 12.1432 57.4604 10.195C57.4604 8.24688 55.8811 6.6676 53.9329 6.6676Z" fill="#FFDD40"/>
<path d="M38.7868 10.195C38.7868 8.24688 40.3661 6.6676 42.3142 6.6676H29.5437C27.5956 6.6676 26.0163 8.24688 26.0163 10.195C26.0163 12.1432 27.5956 13.7225 29.5437 13.7225H42.3142C40.3661 13.7225 38.7868 12.1432 38.7868 10.195Z" fill="#FFB332"/>
<path d="M11.6203 81.7779C20.1256 91.4176 32.5693 97.5 46.4356 97.5C50.5831 97.5 54.6025 96.953 58.4283 95.9325V61.5056C58.4283 59.372 60.1641 57.636 62.2977 57.636H71.8556V30.4959H11.6203V81.7779Z" fill="#E9EFFF"/>
<path d="M23.7198 30.4959H11.6203V81.7778C15.2808 85.9265 19.6721 89.4139 24.5909 92.0434V87.9332C24.5909 87.0122 25.0681 86.5123 25.4658 86.2556C25.7886 86.047 25.9932 85.698 25.9932 85.3136V77.2272C25.9932 76.7837 25.7264 76.3904 25.3235 76.2051C24.8072 75.9681 24.6534 75.4742 24.6087 75.241C24.5962 75.1752 24.5909 75.1089 24.5909 75.042V68.0406C24.5909 67.3836 24.9194 67.0443 25.239 66.8696C25.6025 66.6708 25.8354 66.2973 25.8354 65.8829V57.8183C25.8354 57.3878 25.5756 57.011 25.1884 56.8235C24.6102 56.5434 24.4152 56.0613 24.3508 55.8044C24.3292 55.7186 24.3199 55.6308 24.3199 55.5424V49.2217C24.3199 48.2823 24.8894 47.8057 25.364 47.5715C25.7439 47.3841 25.9936 47.0077 25.9936 46.5841V38.4622C25.9936 38.0335 25.7456 37.6461 25.3604 37.4576C23.669 36.6289 23.7201 34.6023 23.7201 34.6023C23.7201 34.6023 23.7198 32.804 23.7198 30.4959Z" fill="#D3DCFB"/>
<path d="M68.9022 17.6277H14.5737C12.9427 17.6277 11.6203 18.9501 11.6203 20.5811V30.8991H71.8556V20.5811C71.8556 18.9501 70.5332 17.6277 68.9022 17.6277Z" fill="#FFB332"/>
<path d="M24.7438 18.4028C24.9468 18.1836 25.0473 17.9047 25.0471 17.6277H14.5737C12.9427 17.6277 11.6203 18.9499 11.6203 20.5811V30.8991H23.7198C23.7198 27.4158 23.7198 22.5191 23.7198 21.0248C23.7198 19.8076 24.2354 18.9513 24.7438 18.4028Z" fill="#FF9100"/>
<path d="M49.7631 23.0001H33.7128C31.0961 23.0001 28.9674 20.8712 28.9674 18.2547V13.7224C28.9674 12.9121 29.6242 12.2555 30.4343 12.2555C31.2444 12.2555 31.9012 12.9121 31.9012 13.7224V18.2545C31.9012 19.2537 32.714 20.0663 33.713 20.0663H49.7633C50.7623 20.0663 51.575 19.2535 51.575 18.2545V13.7224C51.575 12.9121 52.2317 12.2555 53.0418 12.2555C53.8519 12.2555 54.5087 12.9121 54.5087 13.7224V18.2545C54.5085 20.8712 52.3796 23.0001 49.7631 23.0001Z" fill="#E9EFFF"/>
<path d="M64.8706 25.7303H61.1416C60.3315 25.7303 59.6748 25.0737 59.6748 24.2636C59.6748 23.4533 60.3315 22.7966 61.1416 22.7966H64.8706C65.6807 22.7966 66.3375 23.4533 66.3375 24.2636C66.3375 25.0737 65.6807 25.7303 64.8706 25.7303Z" fill="#FFDD40"/>
<path d="M27.3279 47.3605H22.4902C21.1599 47.3605 20.0715 46.2721 20.0715 44.9418V40.1041C20.0715 38.7738 21.1599 37.6854 22.4902 37.6854H27.3279C28.6582 37.6854 29.7466 38.7738 29.7466 40.1041V44.9418C29.7468 46.2721 28.6582 47.3605 27.3279 47.3605Z" fill="#3C58A0"/>
<path d="M24.0137 45.4342L20.5932 42.0134C20.0203 41.4407 20.0203 40.512 20.5932 39.9391C21.1661 39.3664 22.095 39.3664 22.6675 39.9391L25.051 42.3228L29.7515 37.6223C30.3242 37.0497 31.2531 37.0497 31.8258 37.6223C32.3987 38.1954 32.3987 39.1239 31.8258 39.6968L26.0881 45.4346C25.5159 46.0067 24.5865 46.0073 24.0137 45.4342Z" fill="#49D88B"/>
<path d="M45.3687 40.7461H35.5705C34.7604 40.7461 34.1036 40.0894 34.1036 39.2791C34.1036 38.469 34.7604 37.8124 35.5705 37.8124H45.3687C46.1788 37.8124 46.8356 38.469 46.8356 39.2791C46.8354 40.0894 46.1788 40.7461 45.3687 40.7461Z" fill="#BEC8F7"/>
<path d="M64.8706 46.0056H35.5705C34.7604 46.0056 34.1036 45.349 34.1036 44.5387C34.1036 43.7284 34.7604 43.072 35.5705 43.072H64.8706C65.6807 43.072 66.3375 43.7286 66.3375 44.5387C66.3375 45.3492 65.6807 46.0056 64.8706 46.0056Z" fill="#BEC8F7"/>
<path d="M64.8706 51.2655H35.5705C34.7604 51.2655 34.1036 50.6089 34.1036 49.7988C34.1036 48.9885 34.7604 48.3318 35.5705 48.3318H64.8706C65.6807 48.3318 66.3375 48.9885 66.3375 49.7988C66.3375 50.6089 65.6807 51.2655 64.8706 51.2655Z" fill="#BEC8F7"/>
<path d="M27.3279 66.6868H22.4902C21.1599 66.6868 20.0715 65.5984 20.0715 64.268V59.4305C20.0715 58.1002 21.1599 57.0118 22.4902 57.0118H27.3279C28.6582 57.0118 29.7466 58.1002 29.7466 59.4305V64.268C29.7468 65.5984 28.6582 66.6868 27.3279 66.6868Z" fill="#3C58A0"/>
<path d="M24.0137 64.7602L20.5932 61.3395C20.0203 60.7667 20.0203 59.838 20.5932 59.2651C21.1661 58.6926 22.095 58.6926 22.6675 59.2651L25.051 61.6488L29.7515 56.9483C30.3242 56.3758 31.2531 56.3758 31.8258 56.9483C32.3987 57.5212 32.3987 58.4499 31.8258 59.023L26.0881 64.7608C25.5159 65.3328 24.5865 65.3333 24.0137 64.7602Z" fill="#49D88B"/>
<path d="M45.3687 60.0722H35.5705C34.7604 60.0722 34.1036 59.4155 34.1036 58.6052C34.1036 57.7951 34.7604 57.1385 35.5705 57.1385H45.3687C46.1788 57.1385 46.8356 57.7951 46.8356 58.6052C46.8354 59.4155 46.1788 60.0722 45.3687 60.0722Z" fill="#BEC8F7"/>
<path d="M53.151 65.3322H35.5705C34.7604 65.3322 34.1036 64.6755 34.1036 63.8652C34.1036 63.055 34.7604 62.3985 35.5705 62.3985H53.1512C53.9613 62.3985 54.618 63.0551 54.618 63.8652C54.618 64.6753 53.9613 65.3322 53.151 65.3322Z" fill="#BEC8F7"/>
<path d="M53.151 70.5916H35.5705C34.7604 70.5916 34.1036 69.935 34.1036 69.1249C34.1036 68.3148 34.7604 67.658 35.5705 67.658H53.1512C53.9613 67.658 54.618 68.3146 54.618 69.1249C54.618 69.9352 53.9613 70.5916 53.151 70.5916Z" fill="#BEC8F7"/>
<path d="M27.3279 86.0129H22.4902C21.1599 86.0129 20.0715 84.9245 20.0715 83.5941V78.7566C20.0715 77.4263 21.1599 76.3379 22.4902 76.3379H27.3279C28.6582 76.3379 29.7466 77.4263 29.7466 78.7566V83.5941C29.7468 84.9245 28.6582 86.0129 27.3279 86.0129Z" fill="#3C58A0"/>
<path d="M24.0137 84.0862L20.5932 80.6654C20.0203 80.0927 20.0203 79.164 20.5932 78.5911C21.1661 78.0186 22.095 78.0186 22.6675 78.5911L25.051 80.9748L29.7515 76.2741C30.3242 75.7016 31.2531 75.7016 31.8258 76.2741C32.3987 76.8472 32.3987 77.7757 31.8258 78.3488L26.0881 84.0866C25.5159 84.6587 24.5865 84.6593 24.0137 84.0862Z" fill="#49D88B"/>
<path d="M45.3687 79.3985H35.5705C34.7604 79.3985 34.1036 78.7418 34.1036 77.9317C34.1036 77.1216 34.7604 76.4648 35.5705 76.4648H45.3687C46.1788 76.4648 46.8356 77.1214 46.8356 77.9317C46.8356 78.742 46.1788 79.3985 45.3687 79.3985Z" fill="#BEC8F7"/>
<path d="M53.151 84.6579H35.5705C34.7604 84.6579 34.1036 84.0013 34.1036 83.191C34.1036 82.3807 34.7604 81.7241 35.5705 81.7241H53.1512C53.9613 81.7241 54.618 82.3807 54.618 83.191C54.618 84.0013 53.9613 84.6579 53.151 84.6579Z" fill="#BEC8F7"/>
<path d="M53.151 89.9177H35.5705C34.7604 89.9177 34.1036 89.261 34.1036 88.4509C34.1036 87.6406 34.7604 86.984 35.5705 86.984H53.1512C53.9613 86.984 54.618 87.6406 54.618 88.4509C54.618 89.261 53.9613 89.9177 53.151 89.9177Z" fill="#BEC8F7"/>
<path d="M85.9224 75.4886V61.5056C85.9224 59.2053 84.051 57.3339 81.7506 57.3339H62.2981C59.9978 57.3339 58.1264 59.2053 58.1264 61.5056V96.0143C69.8202 92.9802 79.721 85.5008 85.9224 75.4886Z" fill="#E9EFFF"/>
<path d="M62.2979 57.3339C59.9976 57.3339 58.1261 59.2053 58.1261 61.5056V96.0143C61.9694 95.0172 65.6173 93.537 69.0055 91.6474C69.0055 84.3419 69.0055 70.1655 69.0055 67.3819C69.0055 65.1253 70.0187 63.6713 70.8369 62.8649C71.32 62.3887 71.4066 61.6415 71.03 61.0773C70.03 59.5785 70.2491 58.2667 70.7113 57.334H62.2979V57.3339Z" fill="#D3DCFB"/>
<path d="M65.5788 74.34H64.2085C63.3984 74.34 62.7416 73.6834 62.7416 72.8731C62.7416 72.0628 63.3984 71.4061 64.2085 71.4061H65.5788C66.3889 71.4061 67.0458 72.0628 67.0458 72.8731C67.0456 73.6832 66.3889 74.34 65.5788 74.34Z" fill="#BEC8F7"/>
<path d="M65.5788 84.8595H64.2085C63.3984 84.8595 62.7416 84.2029 62.7416 83.3928C62.7416 82.5827 63.3984 81.926 64.2085 81.926H65.5788C66.3889 81.926 67.0458 82.5827 67.0458 83.3928C67.0458 84.2029 66.3889 84.8595 65.5788 84.8595Z" fill="#BEC8F7"/>
<path d="M79.5032 74.34H70.4724C69.6623 74.34 69.0056 73.6834 69.0056 72.8731C69.0056 72.0628 69.6623 71.4061 70.4724 71.4061H79.5032C80.3133 71.4061 80.9702 72.0628 80.9702 72.8731C80.97 73.6832 80.3133 74.34 79.5032 74.34Z" fill="#BEC8F7"/>
<path d="M79.5032 79.5998H70.4724C69.6623 79.5998 69.0056 78.9431 69.0056 78.1328C69.0056 77.3227 69.6623 76.6661 70.4724 76.6661H79.5032C80.3133 76.6661 80.9702 77.3227 80.9702 78.1328C80.97 78.9431 80.3133 79.5998 79.5032 79.5998Z" fill="#BEC8F7"/>
<path d="M79.5032 81.9257H70.4724C69.6623 81.9257 69.0056 82.5824 69.0056 83.3925C69.0056 84.2028 69.6623 84.8594 70.4724 84.8594H78.2708C79.0879 84.0889 79.8772 83.2892 80.6369 82.4619C80.3679 82.1345 79.96 81.9257 79.5032 81.9257Z" fill="#BEC8F7"/>
<path d="M70.4724 87.1853C69.6623 87.1853 69.0056 87.8419 69.0056 88.6522C69.0056 89.4623 69.6623 90.119 70.4724 90.119H71.5578C72.962 89.2134 74.3128 88.2328 75.6075 87.1853H70.4724Z" fill="#BEC8F7"/>
<path d="M81.7508 57.3339H62.2979C59.9976 57.3339 58.1261 59.2053 58.1261 61.5056V67.3819H85.9223V61.5056C85.9223 59.2053 84.0509 57.3339 81.7508 57.3339Z" fill="#9BD8F9"/>
<path d="M71.0302 61.0771C70.0302 59.5783 70.2493 58.2665 70.7115 57.3339H62.2979C59.9976 57.3339 58.1261 59.2053 58.1261 61.5056V67.3819H69.0055C69.0055 65.1253 70.0187 63.6713 70.8369 62.8649C71.3202 62.3885 71.4066 61.6415 71.0302 61.0771Z" fill="#73C3F9"/>
<path d="M87.3893 72.9444V61.5056C87.3893 58.3963 84.8599 55.8669 81.7508 55.8669H62.2981C59.189 55.8669 56.6596 58.3965 56.6596 61.5056V96.3677C57.6501 96.1451 58.628 95.8899 59.5933 95.6051V61.5056C59.5933 60.0116 60.8043 58.8006 62.2983 58.8006H65.3682C65.8324 58.8006 66.2086 59.1769 66.2086 59.641C66.2086 60.9769 67.3016 62.0696 68.6372 62.0696H75.4115C76.7473 62.0696 77.8401 60.9767 77.8401 59.641C77.8401 59.1769 78.2163 58.8006 78.6805 58.8006H81.7508C83.2446 58.8006 84.4556 60.0116 84.4556 61.5054V77.7128C85.5254 76.1881 86.5057 74.5961 87.3893 72.9444Z" fill="#57BC67"/>
<path d="M71.6048 55.8669H62.2981C59.1889 55.8669 56.6594 58.3965 56.6594 61.5058V96.3678C57.6496 96.1452 58.6278 95.89 59.593 95.6053V61.5056C59.593 60.0116 60.8042 58.8006 62.2981 58.8006H65.368C65.8321 58.8006 66.2084 59.1769 66.2084 59.641C66.2084 60.9769 67.3013 62.0698 68.637 62.0698H71.2457C71.299 61.7328 71.2313 61.3791 71.03 61.0771C69.6253 58.9717 70.6253 57.2344 71.3278 56.4004C71.461 56.2424 71.5523 56.0596 71.6048 55.8669Z" fill="#57BC67"/>
<path d="M28.4267 43.0719C27.3794 43.0719 26.5302 42.2228 26.5302 41.1755C26.5302 41.0493 26.5431 40.926 26.5668 40.8066L25.051 42.3224L22.6675 39.9387C22.0948 39.3662 21.1659 39.3662 20.5932 39.9387C20.0203 40.5116 20.0203 41.4403 20.5932 42.0131L24.0137 45.4338C24.5865 46.0069 25.5159 46.0062 26.0881 45.434L28.4515 43.0706C28.4433 43.0708 28.435 43.0719 28.4267 43.0719Z" fill="#57BC67"/>
<path d="M28.4267 62.3476C27.3794 62.3476 26.5302 61.4985 26.5302 60.4512C26.5302 60.3457 26.541 60.243 26.5577 60.1422L25.051 61.6487L22.6675 59.265C22.0948 58.6925 21.1659 58.6925 20.5932 59.265C20.0203 59.8381 20.0203 60.7666 20.5932 61.3395L24.0137 64.7603C24.5865 65.3334 25.5159 65.3328 26.0881 64.7605L28.5049 62.3436C28.4788 62.3448 28.453 62.3476 28.4267 62.3476Z" fill="#57BC67"/>
<path d="M28.4267 81.2948C27.4106 81.2948 26.5835 80.4951 26.535 79.491L25.051 80.975L22.6675 78.5913C22.0948 78.0187 21.1659 78.0187 20.5932 78.5913C20.0203 79.1644 20.0203 80.0929 20.5932 80.6656L24.0137 84.0864C24.5865 84.6595 25.5159 84.6589 26.0881 84.0866L28.9564 81.2182C28.7881 81.2671 28.6106 81.2948 28.4267 81.2948Z" fill="#57BC67"/>
</svg>
